{
  "__type__": "cc.AnimationClip",
  "_name": "光环2",
  "_objFlags": 0,
  "_native": "",
  "_duration": 6,
  "sample": 60,
  "speed": 1,
  "wrapMode": 2,
  "curveData": {
    "paths": {
      "New Node": {
        "props": {
          "position": [
            {
              "frame": 0,
              "value": [
                0,
                261.2
              ],
              "motionPath": [
                [
                  986.9,
                  267.6,
                  847.9,
                  267.5,
                  1043.9,
                  272.4
                ],
                [
                  1042.8,
                  219.8,
                  1042.6,
                  230.8,
                  1042.7,
                  162.8
                ],
                [
                  1041,
                  -211.4,
                  1041.6,
                  -129.4,
                  1039.4,
                  -232.2
                ],
                [
                  989.1,
                  -255.7,
                  1024.6,
                  -256,
                  733.5,
                  -256.5
                ],
                [
                  -1006.3,
                  -254.4,
                  -655,
                  -254.2,
                  -1040.4,
                  -254.4
                ],
                [
                  -1042.5,
                  -212.6,
                  -1042.5,
                  -220.4,
                  -1042.4,
                  -197.8
                ],
                [
                  -1041.3,
                  206.1,
                  -1042,
                  149.5,
                  -1041.3,
                  221.8
                ],
                [
                  -996.9,
                  265.9,
                  -1043.8,
                  266,
                  -881.5,
                  266.6
                ]
              ]
            },
            {
              "frame": 6,
              "value": [
                -3.3,
                262.3
              ],
              "motionPath": []
            }
          ]
        }
      },
      "New Node2": {
        "props": {
          "position": [
            {
              "frame": 0,
              "value": [
                0.3,
                -256.9
              ],
              "motionPath": [
                [
                  -1009.4,
                  -256.4,
                  -703.8,
                  -255.5,
                  -1024.9,
                  -253
                ],
                [
                  -1041.4,
                  -218.1,
                  -1040.5,
                  -239.4,
                  -1040.5,
                  -165.5
                ],
                [
                  -1043.7,
                  232.9,
                  -1043.6,
                  203,
                  -1044.8,
                  246.6
                ],
                [
                  -1014.4,
                  269.1,
                  -1032.4,
                  268.9,
                  -953.2,
                  268.8
                ],
                [
                  984.5,
                  269.2,
                  982,
                  269.2,
                  1022.3,
                  277.6
                ],
                [
                  1042.9,
                  224.4,
                  1043.9,
                  249.7,
                  1042.6,
                  166.3
                ],
                [
                  1044.8,
                  -221.2,
                  1045.1,
                  -177.1,
                  1045,
                  -244.8
                ],
                [
                  989.7,
                  -255.1,
                  1010.9,
                  -260.6,
                  846.2,
                  -254.9
                ]
              ]
            },
            {
              "frame": 6,
              "value": [
                0.5,
                -256.9
              ],
              "motionPath": []
            }
          ]
        }
      }
    }
  },
  "events": []
}