{
    "1001":{
        "ID":0,
        "name":"杂兵",
        "图片":"人类",
        "type":"杂兵",
<<<<<<< HEAD
        "hp":200,
=======
<<<<<<< HEAD
        "hp":200,
=======
        "hp":50,
>>>>>>> d66bc0d29d2c3fbf887f91cd2377b2b310d64250
>>>>>>> e10dfe02ca27b83a4c9e15a7639db423d2c8ec97
        "power":0,
        "coin":1,
        "OD":0
    },
    "1002":{
        "ID":1,
        "name":"的士",
        "图片":"",
        "type":"精英",
        "hp":500,
        "power":0,
        "coin":20,
        "OD":0
    },
    "1003":{
        "ID":2,
        "name":"帐篷车",
        "图片":"",
        "type":"精英",
        "hp":500,
        "power":0,
        "coin":20,
        "OD":0
    },
    "1004":{
        "ID":3,
        "name":"卡车",
        "图片":"",
        "type":"精英",
        "hp":600,
        "power":0,
        "coin":20,
        "OD":0
    },
    "1005":{
        "ID":4,
        "name":"香蕉船",
        "图片":"",
        "type":"精英",
        "hp":500,
        "power":0,
        "coin":20,
        "OD":0
    },
    "1006":{
        "ID":5,
        "name":"帆船",
        "图片":"",
        "type":"精英",
        "hp":500,
        "power":0,
        "coin":20,
        "OD":0
    },
    "1007":{
        "ID":6,
        "name":"越野车",
        "图片":"",
        "type":"精英",
        "hp":700,
        "power":0,
        "coin":20,
        "OD":0
    },
    "1008":{
        "ID":7,
        "name":"警用直升机",
        "图片":"",
        "type":"精英",
        "hp":1000,
        "power":0,
        "coin":50,
        "OD":0
    },
    "1009":{
        "ID":8,
        "name":"潜水兵",
        "图片":"",
        "type":"BOSS",
        "hp":1000,
        "power":10,
        "coin":50,
        "OD":1
    },
    "1010":{
        "ID":9,
        "name":"飞行兵",
        "图片":"",
        "type":"BOSS",
        "hp":1200,
        "power":20,
        "coin":60,
        "OD":1
    },
    "1011":{
        "ID":10,
        "name":"快艇",
        "图片":"",
        "type":"BOSS",
        "hp":1400,
        "power":30,
        "coin":80,
        "OD":2
    },
    "1012":{
        "ID":11,
        "name":"步兵车",
        "图片":"",
        "type":"BOSS",
        "hp":1600,
        "power":40,
        "coin":100,
        "OD":2
    },
    "1013":{
        "ID":12,
        "name":"自行火箭炮",
        "图片":"",
        "type":"BOSS",
        "hp":1800,
        "power":50,
        "coin":120,
        "OD":3
    },
    "1014":{
        "ID":13,
        "name":"军用直升机",
        "图片":"",
        "type":"BOSS",
        "hp":2000,
        "power":60,
        "coin":140,
        "OD":3
    },
    "1015":{
        "ID":14,
        "name":"潜水艇",
        "图片":"",
        "type":"BOSS",
        "hp":2200,
        "power":70,
        "coin":160,
        "OD":4
    },
    "1016":{
        "ID":15,
        "name":"飞艇",
        "图片":"",
        "type":"BOSS",
        "hp":2400,
        "power":80,
        "coin":180,
        "OD":4
    },
    "1017":{
        "ID":16,
        "name":"机甲-1",
        "图片":"",
        "type":"BOSS",
        "hp":2600,
        "power":90,
        "coin":200,
        "OD":5
    },
    "1018":{
        "ID":17,
        "name":"机甲-2",
        "图片":"",
        "type":"BOSS",
        "hp":2800,
        "power":100,
        "coin":250,
        "OD":5
    },
    "1019":{
        "ID":18,
        "name":"机甲-3",
        "图片":"",
        "type":"BOSS",
        "hp":3000,
        "power":150,
        "coin":500,
        "OD":10
    }
}
